21

C	0	0	1.311202
H	0	0	2.404402
N	0	0	-1.274198
C	1.447012	0	0.779809
C	-0.723506	1.253149	0.779809
C	-0.723506	-1.253149	0.779809
C	1.386817	0	-0.781431
C	-0.693408	1.201019	-0.781431
C	-0.693408	-1.201019	-0.781431
H	1.981975	0.879581	1.151992
H	1.981975	-0.879581	1.151992
H	-1.752727	1.27665	1.151992
H	-0.229248	2.156231	1.151992
H	-0.229248	-2.156231	1.151992
H	-1.752727	-1.27665	1.151992
H	1.8896	-0.878987	-1.194409
H	1.8896	0.878987	-1.194409
H	-0.183575	2.075935	-1.194409
H	-1.706025	1.196948	-1.194409
H	-1.706025	-1.196948	-1.194409
H	-0.183575	-2.075935	-1.194409
