
   Content of the .dal input file
 ----------------------------------

**DALTON INPUT
.DIRECT
.RUN PROPERTIES
**PROPERTIES
.EXCITA
*EXCITA
.DIPSTR
.NEXCIT
5
**WAVE FUNCTIONS
.HF
**END OF DALTON INPUT


   Content of the .mol file
 ----------------------------

ATOMBASIS
Generated by Dalton Project

AtomTypes=1 Charge=0 NoSymmetry Angstrom
Charge=2.0 Atoms=1 Basis=cc-pVTZ
He     0.000000     0.000000     0.000000


@  Sym.   Mode        Frequency     Oscillator-strength
@ ex. st.  No.           (eV)        velocity   length
@ -------------------------------------------------------
@  1        1        32.602527        0.0000   0.0000
@  1        2        51.292426        0.4959   0.7542
@  1        3        51.292426        0.4959   0.7542
@  1        4        51.292426        0.4959   0.7542
@  1        5       132.430833        0.0000   0.0000
  Total CPU  time used in ABACUS:   0.03 seconds

