
   Content of the .dal input file
 ----------------------------------

**DALTON INPUT
.RUN WAVE FUNCTIONS
**WAVE FUNCTIONS
.HF
*ORBITAL INPUT
.PUNCHOUTORBITALS
**END OF DALTON INPUT


   Content of the .mol file
 ----------------------------

ATOMBASIS


Atomtypes=1 Charge=0 NoSymmetry
Charge=2 Atoms=1 Basis=cc-pVDZ
He 0 0 0


@    Total number of orbitals            5 |    5
@    Number of basis functions           5 |    5

 Number of electrons :    2

@    Nuclear repulsion:             0.000000000000
@    Electronic energy:            -2.855160477243
